{
    "word": "P",
    "total": 3,
    "plans": [
        {
            "title": "Plano Mensal",
            "duration": 1,
            "price": 40.99
        },
        {
            "title": "Plano Trimestral",
            "duration": 3,
            "price": 30.99
        },
        {
            "title": "Plano Diabolico",
            "duration": 24,
            "price": 25.99
        }
    ]
}